…
```r
library(haven) ### used to load SPSS .sav files, read_sav()
library(tidyverse) ### for general purpose functions
library(rstatix) ### used for our ANOVA, anova_test()
library(ggpubr) ### used for graphs such as gghistogram()

data <- read_sav("epinex7.sav")
data
```

```
## # A tibble: 121 x 3
##      SNO     DOSAGE ERRORS
##    <dbl>  <dbl+lbl>  <dbl>
##  1     1 1 [0.0 mg]      0
##  2     2 1 [0.0 mg]      3
##  3     3 1 [0.0 mg]      4
##  4     4 1 [0.0 mg]      2
##  5     5 1 [0.0 mg]      3
##  6     6 1 [0.0 mg]      3
##  7     7 1 [0.0 mg]      4
##  8     8 1 [0.0 mg]      0
##  9     9 1 [0.0 mg]      5
## 10    10 1 [0.0 mg]      4
## # ... with 111 more rows
```
…
## tukey_hsd() can be used together with the aov()
## for even greater conveneience
## aov() is another option for carrying our our analysis of variance

library(haven) ### used to load SPSS .sav files, read_sav()
library(tidyverse) ### for general purpose functions
library(rstatix) ### used for our ANOVA, anova_test()
library(ggpubr) ### used for graphs such as gghistogram()

data <- read_sav("epinex7.sav")
data
```

```
## # A tibble: 121 x 3
##      SNO     DOSAGE ERRORS
##    <dbl>  <dbl+lbl>  <dbl>
##  1     1 1 [0.0 mg]      0
##  2     2 1 [0.0 mg]      3
##  3     3 1 [0.0 mg]      4
##  4     4 1 [0.0 mg]      2
##  5     5 1 [0.0 mg]      3
##  6     6 1 [0.0 mg]      3
##  7     7 1 [0.0 mg]      4
##  8     8 1 [0.0 mg]      0
##  9     9 1 [0.0 mg]      5
## 10    10 1 [0.0 mg]      4
## # ... with 111 more rows
```
…
```r
library(haven)
library(tidyverse)
library(rstatix)
library(ggpubr)

df <- read_sav("epinex6.sav")
df
```

```
## # A tibble: 121 x 3
##      sno     dosage errors
##    <dbl>  <dbl+lbl>  <dbl>
##  1     1 1 [0.0 mg]      0
##  2     2 1 [0.0 mg]      3
##  3     3 1 [0.0 mg]      4
##  4     4 1 [0.0 mg]      2
##  5     5 1 [0.0 mg]      3
##  6     6 1 [0.0 mg]      3
##  7     7 1 [0.0 mg]      4
##  8     8 1 [0.0 mg]      0
##  9     9 1 [0.0 mg]      5
## 10    10 1 [0.0 mg]      4
## # ... with 111 more rows
```
…
## Task 2 Solution


```r
library(haven)
library(tidyverse)
library(rstatix)
library(ggpubr)

df2 <- read_sav("epinex62.sav")
df2
```

```
## # A tibble: 121 x 3
##      SNO     DOSAGE ERRORS
##    <dbl>  <dbl+lbl>  <dbl>
##  1     1 1 [0.0 mg]      9
##  2     2 1 [0.0 mg]      3
##  3     3 1 [0.0 mg]      1
##  4     4 1 [0.0 mg]      7
##  5     5 1 [0.0 mg]      3
##  6     6 1 [0.0 mg]      3
##  7     7 1 [0.0 mg]      7
##  8     8 1 [0.0 mg]      7
##  9     9 1 [0.0 mg]      5
## 10    10 1 [0.0 mg]      4
## # ... with 111 more rows
```
…
