Introduction
…
Q5) What is the familywise error rate for the post hoc test?

Q6) What can you conclude from the t-tests (verbally, no numbers)?           

Task 1: Solution

library(haven) ### used to load SPSS .sav files, read_sav()
library(tidyverse) ### for general purpose functions
library(rstatix) ### used for our ANOVA, anova_test()
library(ggpubr) ### used for graphs such as gghistogram()

data <- read_sav("epinex7.sav")
data

## # A tibble: 121 x 3
##      SNO     DOSAGE ERRORS
##    <dbl>  <dbl+lbl>  <dbl>
##  1     1 1 [0.0 mg]      0
##  2     2 1 [0.0 mg]      3
##  3     3 1 [0.0 mg]      4
##  4     4 1 [0.0 mg]      2
##  5     5 1 [0.0 mg]      3
##  6     6 1 [0.0 mg]      3
##  7     7 1 [0.0 mg]      4
##  8     8 1 [0.0 mg]      0
##  9     9 1 [0.0 mg]      5
## 10    10 1 [0.0 mg]      4
## # ... with 111 more rows
…
## tukey_hsd() can be used together with the aov()
## for even greater conveneience
## aov() is another option for carrying our our analysis of variance

library(haven) ### used to load SPSS .sav files, read_sav()
library(tidyverse) ### for general purpose functions
library(rstatix) ### used for our ANOVA, anova_test()
library(ggpubr) ### used for graphs such as gghistogram()

data <- read_sav("epinex7.sav")
data

## # A tibble: 121 x 3
##      SNO     DOSAGE ERRORS
##    <dbl>  <dbl+lbl>  <dbl>
##  1     1 1 [0.0 mg]      0
##  2     2 1 [0.0 mg]      3
##  3     3 1 [0.0 mg]      4
##  4     4 1 [0.0 mg]      2
##  5     5 1 [0.0 mg]      3
##  6     6 1 [0.0 mg]      3
##  7     7 1 [0.0 mg]      4
##  8     8 1 [0.0 mg]      0
##  9     9 1 [0.0 mg]      5
## 10    10 1 [0.0 mg]      4
## # ... with 111 more rows
…
Q6) From the histograms alone, describe the different effect of the drugs on each group.

Q7) Calculate and report your MSE value?    

Task 1 Solution

library(haven)
library(tidyverse)
library(rstatix)
library(ggpubr)

df <- read_sav("epinex6.sav")
df

## # A tibble: 121 x 3
##      sno     dosage errors
##    <dbl>  <dbl+lbl>  <dbl>
##  1     1 1 [0.0 mg]      0
##  2     2 1 [0.0 mg]      3
##  3     3 1 [0.0 mg]      4
##  4     4 1 [0.0 mg]      2
##  5     5 1 [0.0 mg]      3
##  6     6 1 [0.0 mg]      3
##  7     7 1 [0.0 mg]      4
##  8     8 1 [0.0 mg]      0
##  9     9 1 [0.0 mg]      5
## 10    10 1 [0.0 mg]      4
## # ... with 111 more rows
…
Q5) No, while there are differences amongst the cell means, the pattern is inconsistent with the experimenter's hypotheses. Performance appears to have declined (i.e. more errors) in the 300mg condition and improved (i.e. fewer errors) in the 1000mg condition. However, follow-up analyses are needed to discern if these changes differ significantly from the control condition.

Q6) 300mg seem to be normally distributed with 0mg and 1000mg looking more positively skewed. Mean number of errors is lowest in the 1000mg condition and highest in the 300mg condition.     

Task 2 Solution

library(haven)
library(tidyverse)
library(rstatix)
library(ggpubr)

df2 <- read_sav("epinex62.sav")
df2

## # A tibble: 121 x 3
##      SNO     DOSAGE ERRORS
##    <dbl>  <dbl+lbl>  <dbl>
##  1     1 1 [0.0 mg]      9
##  2     2 1 [0.0 mg]      3
##  3     3 1 [0.0 mg]      1
##  4     4 1 [0.0 mg]      7
##  5     5 1 [0.0 mg]      3
##  6     6 1 [0.0 mg]      3
##  7     7 1 [0.0 mg]      7
##  8     8 1 [0.0 mg]      7
##  9     9 1 [0.0 mg]      5
## 10    10 1 [0.0 mg]      4
## # ... with 111 more rows
…
